%YAML 1.1
%TAG !u! tag:unity3d.com,2011:
--- !u!114 &968035326836291412
MonoBehaviour:
  m_ObjectHideFlags: 0
  m_CorrespondingSourceObject: {fileID: 0}
  m_PrefabInstance: {fileID: 0}
  m_PrefabAsset: {fileID: 0}
  m_GameObject: {fileID: 8967678789188792569}
  m_Enabled: 1
  m_EditorHideFlags: 0
  m_Script: {fileID: 11500000, guid: 5fea29bb7c508c244a1f805a5fd3fc4d, type: 3}
  m_Name: 
  m_EditorClassIdentifier: 
  outlineMode: 0
  outlineColor: {r: 1, g: 1, b: 1, a: 1}
  outlineWidth: 2
  precomputeOutline: 0
  bakeKeys: []
  bakeValues: []
--- !u!1001 &936386271471534219
PrefabInstance:
  m_ObjectHideFlags: 0
  serializedVersion: 2
  m_Modification:
    m_TransformParent: {fileID: 0}
    m_Modifications:
    - target: {fileID: 113169690635180554, guid: f9554357fe4dffc45897b37c8917254a, type: 3}
      propertyPath: m_Layer
      value: 15
      objectReference: {fileID: 0}
    - target: {fileID: 236395807588415252, guid: f9554357fe4dffc45897b37c8917254a, type: 3}
      propertyPath: m_AnchorMax.y
      value: 0
      objectReference: {fileID: 0}
    - target: {fileID: 236395807588415252, guid: f9554357fe4dffc45897b37c8917254a, type: 3}
      propertyPath: m_AnchorMin.y
      value: 0
      objectReference: {fileID: 0}
    - target: {fileID: 236395807588415252, guid: f9554357fe4dffc45897b37c8917254a, type: 3}
      propertyPath: m_AnchoredPosition.y
      value: 0
      objectReference: {fileID: 0}
    - target: {fileID: 262225635036854532, guid: f9554357fe4dffc45897b37c8917254a, type: 3}
      propertyPath: m_Layer
      value: 15
      objectReference: {fileID: 0}
    - target: {fileID: 540739887737606064, guid: f9554357fe4dffc45897b37c8917254a, type: 3}
      propertyPath: m_Layer
      value: 15
      objectReference: {fileID: 0}
    - target: {fileID: 803822451031687585, guid: f9554357fe4dffc45897b37c8917254a, type: 3}
      propertyPath: m_Layer
      value: 15
      objectReference: {fileID: 0}
    - target: {fileID: 922142079908515100, guid: f9554357fe4dffc45897b37c8917254a, type: 3}
      propertyPath: m_Layer
      value: 15
      objectReference: {fileID: 0}
    - target: {fileID: 943648170105360312, guid: f9554357fe4dffc45897b37c8917254a, type: 3}
      propertyPath: m_Layer
      value: 15
      objectReference: {fileID: 0}
    - target: {fileID: 963014196549728948, guid: f9554357fe4dffc45897b37c8917254a, type: 3}
      propertyPath: m_Layer
      value: 15
      objectReference: {fileID: 0}
    - target: {fileID: 2044329487355196368, guid: f9554357fe4dffc45897b37c8917254a, type: 3}
      propertyPath: m_AnchorMax.y
      value: 0
      objectReference: {fileID: 0}
    - target: {fileID: 2044329487355196368, guid: f9554357fe4dffc45897b37c8917254a, type: 3}
      propertyPath: m_AnchorMin.y
      value: 0
      objectReference: {fileID: 0}
    - target: {fileID: 2044329487355196368, guid: f9554357fe4dffc45897b37c8917254a, type: 3}
      propertyPath: m_AnchoredPosition.x
      value: 0
      objectReference: {fileID: 0}
    - target: {fileID: 2044329487355196368, guid: f9554357fe4dffc45897b37c8917254a, type: 3}
      propertyPath: m_AnchoredPosition.y
      value: 0
      objectReference: {fileID: 0}
    - target: {fileID: 2804736964477168580, guid: f9554357fe4dffc45897b37c8917254a, type: 3}
      propertyPath: m_AnchorMax.y
      value: 0
      objectReference: {fileID: 0}
    - target: {fileID: 2804736964477168580, guid: f9554357fe4dffc45897b37c8917254a, type: 3}
      propertyPath: m_AnchorMin.y
      value: 0
      objectReference: {fileID: 0}
    - target: {fileID: 2804736964477168580, guid: f9554357fe4dffc45897b37c8917254a, type: 3}
      propertyPath: m_AnchoredPosition.x
      value: 0
      objectReference: {fileID: 0}
    - target: {fileID: 2804736964477168580, guid: f9554357fe4dffc45897b37c8917254a, type: 3}
      propertyPath: m_AnchoredPosition.y
      value: 0
      objectReference: {fileID: 0}
    - target: {fileID: 3155841553133495481, guid: f9554357fe4dffc45897b37c8917254a, type: 3}
      propertyPath: m_AnchorMax.y
      value: 0
      objectReference: {fileID: 0}
    - target: {fileID: 3155841553133495481, guid: f9554357fe4dffc45897b37c8917254a, type: 3}
      propertyPath: m_AnchorMin.y
      value: 0
      objectReference: {fileID: 0}
    - target: {fileID: 3280060004043948436, guid: f9554357fe4dffc45897b37c8917254a, type: 3}
      propertyPath: m_Layer
      value: 15
      objectReference: {fileID: 0}
    - target: {fileID: 3926748448998233352, guid: f9554357fe4dffc45897b37c8917254a, type: 3}
      propertyPath: m_Layer
      value: 15
      objectReference: {fileID: 0}
    - target: {fileID: 3954954327003303234, guid: f9554357fe4dffc45897b37c8917254a, type: 3}
      propertyPath: m_Layer
      value: 15
      objectReference: {fileID: 0}
    - target: {fileID: 4112098092867084560, guid: f9554357fe4dffc45897b37c8917254a, type: 3}
      propertyPath: m_Layer
      value: 15
      objectReference: {fileID: 0}
    - target: {fileID: 4176348695140953856, guid: f9554357fe4dffc45897b37c8917254a, type: 3}
      propertyPath: m_AnchorMax.y
      value: 0
      objectReference: {fileID: 0}
    - target: {fileID: 4176348695140953856, guid: f9554357fe4dffc45897b37c8917254a, type: 3}
      propertyPath: m_AnchorMin.y
      value: 0
      objectReference: {fileID: 0}
    - target: {fileID: 4176348695140953856, guid: f9554357fe4dffc45897b37c8917254a, type: 3}
      propertyPath: m_AnchoredPosition.y
      value: 0
      objectReference: {fileID: 0}
    - target: {fileID: 4260555353111822878, guid: f9554357fe4dffc45897b37c8917254a, type: 3}
      propertyPath: m_Layer
      value: 15
      objectReference: {fileID: 0}
    - target: {fileID: 4410044033116936100, guid: f9554357fe4dffc45897b37c8917254a, type: 3}
      propertyPath: m_Layer
      value: 15
      objectReference: {fileID: 0}
    - target: {fileID: 4639811708849016551, guid: f9554357fe4dffc45897b37c8917254a, type: 3}
      propertyPath: m_Layer
      value: 15
      objectReference: {fileID: 0}
    - target: {fileID: 5352213725846550267, guid: f9554357fe4dffc45897b37c8917254a, type: 3}
      propertyPath: m_Layer
      value: 15
      objectReference: {fileID: 0}
    - target: {fileID: 5378043877785614571, guid: f9554357fe4dffc45897b37c8917254a, type: 3}
      propertyPath: m_AnchorMax.y
      value: 0
      objectReference: {fileID: 0}
    - target: {fileID: 5378043877785614571, guid: f9554357fe4dffc45897b37c8917254a, type: 3}
      propertyPath: m_AnchorMin.y
      value: 0
      objectReference: {fileID: 0}
    - target: {fileID: 5378043877785614571, guid: f9554357fe4dffc45897b37c8917254a, type: 3}
      propertyPath: m_AnchoredPosition.y
      value: 0
      objectReference: {fileID: 0}
    - target: {fileID: 5519275377138302348, guid: f9554357fe4dffc45897b37c8917254a, type: 3}
      propertyPath: m_Layer
      value: 15
      objectReference: {fileID: 0}
    - target: {fileID: 6140753207239924729, guid: f9554357fe4dffc45897b37c8917254a, type: 3}
      propertyPath: m_Layer
      value: 15
      objectReference: {fileID: 0}
    - target: {fileID: 6177694057729063983, guid: f9554357fe4dffc45897b37c8917254a, type: 3}
      propertyPath: m_AnchorMax.y
      value: 0
      objectReference: {fileID: 0}
    - target: {fileID: 6177694057729063983, guid: f9554357fe4dffc45897b37c8917254a, type: 3}
      propertyPath: m_AnchorMin.y
      value: 0
      objectReference: {fileID: 0}
    - target: {fileID: 6177694057729063983, guid: f9554357fe4dffc45897b37c8917254a, type: 3}
      propertyPath: m_AnchoredPosition.x
      value: 0
      objectReference: {fileID: 0}
    - target: {fileID: 6177694057729063983, guid: f9554357fe4dffc45897b37c8917254a, type: 3}
      propertyPath: m_AnchoredPosition.y
      value: 0
      objectReference: {fileID: 0}
    - target: {fileID: 6236039365379087843, guid: f9554357fe4dffc45897b37c8917254a, type: 3}
      propertyPath: m_Layer
      value: 15
      objectReference: {fileID: 0}
    - target: {fileID: 6385035853065532242, guid: f9554357fe4dffc45897b37c8917254a, type: 3}
      propertyPath: m_AnchorMax.y
      value: 0
      objectReference: {fileID: 0}
    - target: {fileID: 6385035853065532242, guid: f9554357fe4dffc45897b37c8917254a, type: 3}
      propertyPath: m_AnchorMin.y
      value: 0
      objectReference: {fileID: 0}
    - target: {fileID: 6713463555015552497, guid: f9554357fe4dffc45897b37c8917254a, type: 3}
      propertyPath: m_Layer
      value: 15
      objectReference: {fileID: 0}
    - target: {fileID: 7074789949721193286, guid: f9554357fe4dffc45897b37c8917254a, type: 3}
      propertyPath: m_AnchorMax.y
      value: 0
      objectReference: {fileID: 0}
    - target: {fileID: 7074789949721193286, guid: f9554357fe4dffc45897b37c8917254a, type: 3}
      propertyPath: m_AnchorMin.y
      value: 0
      objectReference: {fileID: 0}
    - target: {fileID: 7636283619757906821, guid: f9554357fe4dffc45897b37c8917254a, type: 3}
      propertyPath: m_Layer
      value: 15
      objectReference: {fileID: 0}
    - target: {fileID: 7825554757142902536, guid: f9554357fe4dffc45897b37c8917254a, type: 3}
      propertyPath: m_Layer
      value: 15
      objectReference: {fileID: 0}
    - target: {fileID: 7825554757531858279, guid: f9554357fe4dffc45897b37c8917254a, type: 3}
      propertyPath: m_Layer
      value: 15
      objectReference: {fileID: 0}
    - target: {fileID: 7825554758430579576, guid: f9554357fe4dffc45897b37c8917254a, type: 3}
      propertyPath: m_Layer
      value: 15
      objectReference: {fileID: 0}
    - target: {fileID: 7825554758575469207, guid: f9554357fe4dffc45897b37c8917254a, type: 3}
      propertyPath: m_Layer
      value: 15
      objectReference: {fileID: 0}
    - target: {fileID: 8057729952574771107, guid: f9554357fe4dffc45897b37c8917254a, type: 3}
      propertyPath: m_Layer
      value: 15
      objectReference: {fileID: 0}
    - target: {fileID: 8110189093762773106, guid: f9554357fe4dffc45897b37c8917254a, type: 3}
      propertyPath: m_Name
      value: CodeTerminal
      objectReference: {fileID: 0}
    - target: {fileID: 8110189093762773106, guid: f9554357fe4dffc45897b37c8917254a, type: 3}
      propertyPath: m_Layer
      value: 15
      objectReference: {fileID: 0}
    - target: {fileID: 8110189093762773110, guid: f9554357fe4dffc45897b37c8917254a, type: 3}
      propertyPath: m_RootOrder
      value: 0
      objectReference: {fileID: 0}
    - target: {fileID: 8110189093762773110, guid: f9554357fe4dffc45897b37c8917254a, type: 3}
      propertyPath: m_LocalPosition.x
      value: 15.286848
      objectReference: {fileID: 0}
    - target: {fileID: 8110189093762773110, guid: f9554357fe4dffc45897b37c8917254a, type: 3}
      propertyPath: m_LocalPosition.y
      value: 3.000001
      objectReference: {fileID: 0}
    - target: {fileID: 8110189093762773110, guid: f9554357fe4dffc45897b37c8917254a, type: 3}
      propertyPath: m_LocalPosition.z
      value: -16.795633
      objectReference: {fileID: 0}
    - target: {fileID: 8110189093762773110, guid: f9554357fe4dffc45897b37c8917254a, type: 3}
      propertyPath: m_LocalRotation.w
      value: 1
      objectReference: {fileID: 0}
    - target: {fileID: 8110189093762773110, guid: f9554357fe4dffc45897b37c8917254a, type: 3}
      propertyPath: m_LocalRotation.x
      value: -0
      objectReference: {fileID: 0}
    - target: {fileID: 8110189093762773110, guid: f9554357fe4dffc45897b37c8917254a, type: 3}
      propertyPath: m_LocalRotation.y
      value: -0
      objectReference: {fileID: 0}
    - target: {fileID: 8110189093762773110, guid: f9554357fe4dffc45897b37c8917254a, type: 3}
      propertyPath: m_LocalRotation.z
      value: -0
      objectReference: {fileID: 0}
    - target: {fileID: 8110189093762773110, guid: f9554357fe4dffc45897b37c8917254a, type: 3}
      propertyPath: m_LocalEulerAnglesHint.x
      value: 0
      objectReference: {fileID: 0}
    - target: {fileID: 8110189093762773110, guid: f9554357fe4dffc45897b37c8917254a, type: 3}
      propertyPath: m_LocalEulerAnglesHint.y
      value: 0
      objectReference: {fileID: 0}
    - target: {fileID: 8110189093762773110, guid: f9554357fe4dffc45897b37c8917254a, type: 3}
      propertyPath: m_LocalEulerAnglesHint.z
      value: 0
      objectReference: {fileID: 0}
    - target: {fileID: 8270287116614520289, guid: f9554357fe4dffc45897b37c8917254a, type: 3}
      propertyPath: m_Layer
      value: 15
      objectReference: {fileID: 0}
    - target: {fileID: 8317183723180817360, guid: f9554357fe4dffc45897b37c8917254a, type: 3}
      propertyPath: m_Layer
      value: 15
      objectReference: {fileID: 0}
    - target: {fileID: 8419164473517332571, guid: f9554357fe4dffc45897b37c8917254a, type: 3}
      propertyPath: m_Layer
      value: 15
      objectReference: {fileID: 0}
    - target: {fileID: 8503288218249866834, guid: f9554357fe4dffc45897b37c8917254a, type: 3}
      propertyPath: m_Layer
      value: 15
      objectReference: {fileID: 0}
    - target: {fileID: 8601126366622097437, guid: f9554357fe4dffc45897b37c8917254a, type: 3}
      propertyPath: m_Layer
      value: 15
      objectReference: {fileID: 0}
    - target: {fileID: 8651741900893434022, guid: f9554357fe4dffc45897b37c8917254a, type: 3}
      propertyPath: m_Layer
      value: 15
      objectReference: {fileID: 0}
    - target: {fileID: 9195191817850182391, guid: f9554357fe4dffc45897b37c8917254a, type: 3}
      propertyPath: m_Layer
      value: 15
      objectReference: {fileID: 0}
    m_RemovedComponents: []
  m_SourcePrefab: {fileID: 100100000, guid: f9554357fe4dffc45897b37c8917254a, type: 3}
--- !u!1 &8967678789188792569 stripped
GameObject:
  m_CorrespondingSourceObject: {fileID: 8110189093762773106, guid: f9554357fe4dffc45897b37c8917254a, type: 3}
  m_PrefabInstance: {fileID: 936386271471534219}
  m_PrefabAsset: {fileID: 0}
