%YAML 1.1
%TAG !u! tag:unity3d.com,2011:
--- !u!114 &5794425814234612370
MonoBehaviour:
  m_ObjectHideFlags: 0
  m_CorrespondingSourceObject: {fileID: 0}
  m_PrefabInstance: {fileID: 0}
  m_PrefabAsset: {fileID: 0}
  m_GameObject: {fileID: 1072607625376366740}
  m_Enabled: 1
  m_EditorHideFlags: 0
  m_Script: {fileID: 11500000, guid: 5fea29bb7c508c244a1f805a5fd3fc4d, type: 3}
  m_Name: 
  m_EditorClassIdentifier: 
  outlineMode: 0
  outlineColor: {r: 1, g: 1, b: 1, a: 1}
  outlineWidth: 2
  precomputeOutline: 0
  bakeKeys: []
  bakeValues: []
--- !u!1001 &7163233945424800222
PrefabInstance:
  m_ObjectHideFlags: 0
  serializedVersion: 2
  m_Modification:
    m_TransformParent: {fileID: 0}
    m_Modifications:
    - target: {fileID: 97255606111185640, guid: 640b4a2b9d592ab4fb1bf2bc6e80bb5d, type: 3}
      propertyPath: m_AnchorMax.y
      value: 0
      objectReference: {fileID: 0}
    - target: {fileID: 97255606111185640, guid: 640b4a2b9d592ab4fb1bf2bc6e80bb5d, type: 3}
      propertyPath: m_AnchorMin.y
      value: 0
      objectReference: {fileID: 0}
    - target: {fileID: 97255606111185640, guid: 640b4a2b9d592ab4fb1bf2bc6e80bb5d, type: 3}
      propertyPath: m_AnchoredPosition.x
      value: 0
      objectReference: {fileID: 0}
    - target: {fileID: 97255606111185640, guid: 640b4a2b9d592ab4fb1bf2bc6e80bb5d, type: 3}
      propertyPath: m_AnchoredPosition.y
      value: 0
      objectReference: {fileID: 0}
    - target: {fileID: 1161907409062876800, guid: 640b4a2b9d592ab4fb1bf2bc6e80bb5d, type: 3}
      propertyPath: m_Layer
      value: 15
      objectReference: {fileID: 0}
    - target: {fileID: 1178324535423050636, guid: 640b4a2b9d592ab4fb1bf2bc6e80bb5d, type: 3}
      propertyPath: m_Layer
      value: 15
      objectReference: {fileID: 0}
    - target: {fileID: 1282247115579757604, guid: 640b4a2b9d592ab4fb1bf2bc6e80bb5d, type: 3}
      propertyPath: m_Layer
      value: 15
      objectReference: {fileID: 0}
    - target: {fileID: 1594467651529201817, guid: 640b4a2b9d592ab4fb1bf2bc6e80bb5d, type: 3}
      propertyPath: m_Layer
      value: 15
      objectReference: {fileID: 0}
    - target: {fileID: 1911346703143376520, guid: 640b4a2b9d592ab4fb1bf2bc6e80bb5d, type: 3}
      propertyPath: m_Layer
      value: 15
      objectReference: {fileID: 0}
    - target: {fileID: 2059658614144172850, guid: 640b4a2b9d592ab4fb1bf2bc6e80bb5d, type: 3}
      propertyPath: m_Layer
      value: 15
      objectReference: {fileID: 0}
    - target: {fileID: 2179943564337180204, guid: 640b4a2b9d592ab4fb1bf2bc6e80bb5d, type: 3}
      propertyPath: m_AnchorMax.y
      value: 0
      objectReference: {fileID: 0}
    - target: {fileID: 2179943564337180204, guid: 640b4a2b9d592ab4fb1bf2bc6e80bb5d, type: 3}
      propertyPath: m_AnchorMin.y
      value: 0
      objectReference: {fileID: 0}
    - target: {fileID: 2179943564337180204, guid: 640b4a2b9d592ab4fb1bf2bc6e80bb5d, type: 3}
      propertyPath: m_AnchoredPosition.y
      value: 0
      objectReference: {fileID: 0}
    - target: {fileID: 2208157381229731900, guid: 640b4a2b9d592ab4fb1bf2bc6e80bb5d, type: 3}
      propertyPath: m_Layer
      value: 15
      objectReference: {fileID: 0}
    - target: {fileID: 2320743650834878108, guid: 640b4a2b9d592ab4fb1bf2bc6e80bb5d, type: 3}
      propertyPath: m_Layer
      value: 15
      objectReference: {fileID: 0}
    - target: {fileID: 2600394265211369512, guid: 640b4a2b9d592ab4fb1bf2bc6e80bb5d, type: 3}
      propertyPath: m_Layer
      value: 15
      objectReference: {fileID: 0}
    - target: {fileID: 2662243801788020280, guid: 640b4a2b9d592ab4fb1bf2bc6e80bb5d, type: 3}
      propertyPath: m_AnchorMax.y
      value: 0
      objectReference: {fileID: 0}
    - target: {fileID: 2662243801788020280, guid: 640b4a2b9d592ab4fb1bf2bc6e80bb5d, type: 3}
      propertyPath: m_AnchorMin.y
      value: 0
      objectReference: {fileID: 0}
    - target: {fileID: 2662243801788020280, guid: 640b4a2b9d592ab4fb1bf2bc6e80bb5d, type: 3}
      propertyPath: m_AnchoredPosition.y
      value: 0
      objectReference: {fileID: 0}
    - target: {fileID: 2749420248181185318, guid: 640b4a2b9d592ab4fb1bf2bc6e80bb5d, type: 3}
      propertyPath: m_Layer
      value: 15
      objectReference: {fileID: 0}
    - target: {fileID: 3132802523151109168, guid: 640b4a2b9d592ab4fb1bf2bc6e80bb5d, type: 3}
      propertyPath: m_Layer
      value: 15
      objectReference: {fileID: 0}
    - target: {fileID: 3163142819680916602, guid: 640b4a2b9d592ab4fb1bf2bc6e80bb5d, type: 3}
      propertyPath: m_Layer
      value: 15
      objectReference: {fileID: 0}
    - target: {fileID: 3495482235539429548, guid: 640b4a2b9d592ab4fb1bf2bc6e80bb5d, type: 3}
      propertyPath: m_Layer
      value: 15
      objectReference: {fileID: 0}
    - target: {fileID: 3948709709081869697, guid: 640b4a2b9d592ab4fb1bf2bc6e80bb5d, type: 3}
      propertyPath: m_AnchorMax.y
      value: 0
      objectReference: {fileID: 0}
    - target: {fileID: 3948709709081869697, guid: 640b4a2b9d592ab4fb1bf2bc6e80bb5d, type: 3}
      propertyPath: m_AnchorMin.y
      value: 0
      objectReference: {fileID: 0}
    - target: {fileID: 4317547740932616956, guid: 640b4a2b9d592ab4fb1bf2bc6e80bb5d, type: 3}
      propertyPath: m_AnchorMax.y
      value: 0
      objectReference: {fileID: 0}
    - target: {fileID: 4317547740932616956, guid: 640b4a2b9d592ab4fb1bf2bc6e80bb5d, type: 3}
      propertyPath: m_AnchorMin.y
      value: 0
      objectReference: {fileID: 0}
    - target: {fileID: 4317547740932616956, guid: 640b4a2b9d592ab4fb1bf2bc6e80bb5d, type: 3}
      propertyPath: m_AnchoredPosition.x
      value: 0
      objectReference: {fileID: 0}
    - target: {fileID: 4317547740932616956, guid: 640b4a2b9d592ab4fb1bf2bc6e80bb5d, type: 3}
      propertyPath: m_AnchoredPosition.y
      value: 0
      objectReference: {fileID: 0}
    - target: {fileID: 4624189851862709449, guid: 640b4a2b9d592ab4fb1bf2bc6e80bb5d, type: 3}
      propertyPath: m_Layer
      value: 15
      objectReference: {fileID: 0}
    - target: {fileID: 5015703646212401770, guid: 640b4a2b9d592ab4fb1bf2bc6e80bb5d, type: 3}
      propertyPath: m_AnchorMax.y
      value: 0
      objectReference: {fileID: 0}
    - target: {fileID: 5015703646212401770, guid: 640b4a2b9d592ab4fb1bf2bc6e80bb5d, type: 3}
      propertyPath: m_AnchorMin.y
      value: 0
      objectReference: {fileID: 0}
    - target: {fileID: 5205942516714947265, guid: 640b4a2b9d592ab4fb1bf2bc6e80bb5d, type: 3}
      propertyPath: m_Layer
      value: 15
      objectReference: {fileID: 0}
    - target: {fileID: 5241340735243871511, guid: 640b4a2b9d592ab4fb1bf2bc6e80bb5d, type: 3}
      propertyPath: m_AnchorMax.y
      value: 0
      objectReference: {fileID: 0}
    - target: {fileID: 5241340735243871511, guid: 640b4a2b9d592ab4fb1bf2bc6e80bb5d, type: 3}
      propertyPath: m_AnchorMin.y
      value: 0
      objectReference: {fileID: 0}
    - target: {fileID: 5241340735243871511, guid: 640b4a2b9d592ab4fb1bf2bc6e80bb5d, type: 3}
      propertyPath: m_AnchoredPosition.x
      value: 0
      objectReference: {fileID: 0}
    - target: {fileID: 5241340735243871511, guid: 640b4a2b9d592ab4fb1bf2bc6e80bb5d, type: 3}
      propertyPath: m_AnchoredPosition.y
      value: 0
      objectReference: {fileID: 0}
    - target: {fileID: 5444204751434564827, guid: 640b4a2b9d592ab4fb1bf2bc6e80bb5d, type: 3}
      propertyPath: m_Layer
      value: 15
      objectReference: {fileID: 0}
    - target: {fileID: 5881428527624414388, guid: 640b4a2b9d592ab4fb1bf2bc6e80bb5d, type: 3}
      propertyPath: m_Layer
      value: 15
      objectReference: {fileID: 0}
    - target: {fileID: 6287462298823438275, guid: 640b4a2b9d592ab4fb1bf2bc6e80bb5d, type: 3}
      propertyPath: m_Layer
      value: 15
      objectReference: {fileID: 0}
    - target: {fileID: 6315675924409197011, guid: 640b4a2b9d592ab4fb1bf2bc6e80bb5d, type: 3}
      propertyPath: m_AnchorMax.y
      value: 0
      objectReference: {fileID: 0}
    - target: {fileID: 6315675924409197011, guid: 640b4a2b9d592ab4fb1bf2bc6e80bb5d, type: 3}
      propertyPath: m_AnchorMin.y
      value: 0
      objectReference: {fileID: 0}
    - target: {fileID: 6315675924409197011, guid: 640b4a2b9d592ab4fb1bf2bc6e80bb5d, type: 3}
      propertyPath: m_AnchoredPosition.y
      value: 0
      objectReference: {fileID: 0}
    - target: {fileID: 6729648370410936287, guid: 640b4a2b9d592ab4fb1bf2bc6e80bb5d, type: 3}
      propertyPath: m_Layer
      value: 15
      objectReference: {fileID: 0}
    - target: {fileID: 7105710023028523983, guid: 640b4a2b9d592ab4fb1bf2bc6e80bb5d, type: 3}
      propertyPath: m_Layer
      value: 15
      objectReference: {fileID: 0}
    - target: {fileID: 7284087275281459614, guid: 640b4a2b9d592ab4fb1bf2bc6e80bb5d, type: 3}
      propertyPath: m_Layer
      value: 15
      objectReference: {fileID: 0}
    - target: {fileID: 7625032703998640483, guid: 640b4a2b9d592ab4fb1bf2bc6e80bb5d, type: 3}
      propertyPath: m_Layer
      value: 15
      objectReference: {fileID: 0}
    - target: {fileID: 7663500934248675621, guid: 640b4a2b9d592ab4fb1bf2bc6e80bb5d, type: 3}
      propertyPath: m_Layer
      value: 15
      objectReference: {fileID: 0}
    - target: {fileID: 7712080343213913962, guid: 640b4a2b9d592ab4fb1bf2bc6e80bb5d, type: 3}
      propertyPath: m_Layer
      value: 15
      objectReference: {fileID: 0}
    - target: {fileID: 7893193460524493130, guid: 640b4a2b9d592ab4fb1bf2bc6e80bb5d, type: 3}
      propertyPath: m_Name
      value: GenericTerminal
      objectReference: {fileID: 0}
    - target: {fileID: 7893193460524493130, guid: 640b4a2b9d592ab4fb1bf2bc6e80bb5d, type: 3}
      propertyPath: m_Layer
      value: 15
      objectReference: {fileID: 0}
    - target: {fileID: 7893193460524493134, guid: 640b4a2b9d592ab4fb1bf2bc6e80bb5d, type: 3}
      propertyPath: m_RootOrder
      value: 0
      objectReference: {fileID: 0}
    - target: {fileID: 7893193460524493134, guid: 640b4a2b9d592ab4fb1bf2bc6e80bb5d, type: 3}
      propertyPath: m_LocalPosition.x
      value: 15.546563
      objectReference: {fileID: 0}
    - target: {fileID: 7893193460524493134, guid: 640b4a2b9d592ab4fb1bf2bc6e80bb5d, type: 3}
      propertyPath: m_LocalPosition.y
      value: 3
      objectReference: {fileID: 0}
    - target: {fileID: 7893193460524493134, guid: 640b4a2b9d592ab4fb1bf2bc6e80bb5d, type: 3}
      propertyPath: m_LocalPosition.z
      value: -20.267206
      objectReference: {fileID: 0}
    - target: {fileID: 7893193460524493134, guid: 640b4a2b9d592ab4fb1bf2bc6e80bb5d, type: 3}
      propertyPath: m_LocalRotation.w
      value: 1
      objectReference: {fileID: 0}
    - target: {fileID: 7893193460524493134, guid: 640b4a2b9d592ab4fb1bf2bc6e80bb5d, type: 3}
      propertyPath: m_LocalRotation.x
      value: 0
      objectReference: {fileID: 0}
    - target: {fileID: 7893193460524493134, guid: 640b4a2b9d592ab4fb1bf2bc6e80bb5d, type: 3}
      propertyPath: m_LocalRotation.y
      value: 0
      objectReference: {fileID: 0}
    - target: {fileID: 7893193460524493134, guid: 640b4a2b9d592ab4fb1bf2bc6e80bb5d, type: 3}
      propertyPath: m_LocalRotation.z
      value: 0
      objectReference: {fileID: 0}
    - target: {fileID: 7893193460524493134, guid: 640b4a2b9d592ab4fb1bf2bc6e80bb5d, type: 3}
      propertyPath: m_LocalEulerAnglesHint.x
      value: 0
      objectReference: {fileID: 0}
    - target: {fileID: 7893193460524493134, guid: 640b4a2b9d592ab4fb1bf2bc6e80bb5d, type: 3}
      propertyPath: m_LocalEulerAnglesHint.y
      value: 0
      objectReference: {fileID: 0}
    - target: {fileID: 7893193460524493134, guid: 640b4a2b9d592ab4fb1bf2bc6e80bb5d, type: 3}
      propertyPath: m_LocalEulerAnglesHint.z
      value: 0
      objectReference: {fileID: 0}
    - target: {fileID: 7956731500305572584, guid: 640b4a2b9d592ab4fb1bf2bc6e80bb5d, type: 3}
      propertyPath: m_Layer
      value: 15
      objectReference: {fileID: 0}
    - target: {fileID: 8053168355588822233, guid: 640b4a2b9d592ab4fb1bf2bc6e80bb5d, type: 3}
      propertyPath: m_Layer
      value: 15
      objectReference: {fileID: 0}
    - target: {fileID: 8187151820683504735, guid: 640b4a2b9d592ab4fb1bf2bc6e80bb5d, type: 3}
      propertyPath: m_Layer
      value: 15
      objectReference: {fileID: 0}
    - target: {fileID: 8187151821099986480, guid: 640b4a2b9d592ab4fb1bf2bc6e80bb5d, type: 3}
      propertyPath: m_Layer
      value: 15
      objectReference: {fileID: 0}
    - target: {fileID: 8187151821794945967, guid: 640b4a2b9d592ab4fb1bf2bc6e80bb5d, type: 3}
      propertyPath: m_Layer
      value: 15
      objectReference: {fileID: 0}
    - target: {fileID: 8187151821951386176, guid: 640b4a2b9d592ab4fb1bf2bc6e80bb5d, type: 3}
      propertyPath: m_Layer
      value: 15
      objectReference: {fileID: 0}
    - target: {fileID: 8274696980458575515, guid: 640b4a2b9d592ab4fb1bf2bc6e80bb5d, type: 3}
      propertyPath: m_Layer
      value: 15
      objectReference: {fileID: 0}
    - target: {fileID: 8430431590261736125, guid: 640b4a2b9d592ab4fb1bf2bc6e80bb5d, type: 3}
      propertyPath: m_Layer
      value: 15
      objectReference: {fileID: 0}
    - target: {fileID: 9163097198293365374, guid: 640b4a2b9d592ab4fb1bf2bc6e80bb5d, type: 3}
      propertyPath: m_AnchorMax.y
      value: 0
      objectReference: {fileID: 0}
    - target: {fileID: 9163097198293365374, guid: 640b4a2b9d592ab4fb1bf2bc6e80bb5d, type: 3}
      propertyPath: m_AnchorMin.y
      value: 0
      objectReference: {fileID: 0}
    m_RemovedComponents: []
  m_SourcePrefab: {fileID: 100100000, guid: 640b4a2b9d592ab4fb1bf2bc6e80bb5d, type: 3}
--- !u!1 &1072607625376366740 stripped
GameObject:
  m_CorrespondingSourceObject: {fileID: 7893193460524493130, guid: 640b4a2b9d592ab4fb1bf2bc6e80bb5d, type: 3}
  m_PrefabInstance: {fileID: 7163233945424800222}
  m_PrefabAsset: {fileID: 0}
