%YAML 1.1
%TAG !u! tag:unity3d.com,2011:
--- !u!1001 &1327212215848696921
PrefabInstance:
  m_ObjectHideFlags: 0
  serializedVersion: 2
  m_Modification:
    m_TransformParent: {fileID: 0}
    m_Modifications:
    - target: {fileID: 6009177486151908034, guid: edfb440971a34264eb80fcced722e571, type: 3}
      propertyPath: m_RootOrder
      value: 2
      objectReference: {fileID: 0}
    - target: {fileID: 7968854477045184759, guid: edfb440971a34264eb80fcced722e571, type: 3}
      propertyPath: m_Sprite
      value: 
      objectReference: {fileID: 0}
    - target: {fileID: 7968854477045184759, guid: edfb440971a34264eb80fcced722e571, type: 3}
      propertyPath: m_WasSpriteAssigned
      value: 0
      objectReference: {fileID: 0}
    - target: {fileID: 8634283793599274472, guid: edfb440971a34264eb80fcced722e571, type: 3}
      propertyPath: m_Name
      value: VerticalDetector
      objectReference: {fileID: 0}
    - target: {fileID: 8634283793599274478, guid: edfb440971a34264eb80fcced722e571, type: 3}
      propertyPath: m_RootOrder
      value: 0
      objectReference: {fileID: 0}
    - target: {fileID: 8634283793599274478, guid: edfb440971a34264eb80fcced722e571, type: 3}
      propertyPath: m_LocalScale.x
      value: 6
      objectReference: {fileID: 0}
    - target: {fileID: 8634283793599274478, guid: edfb440971a34264eb80fcced722e571, type: 3}
      propertyPath: m_LocalPosition.x
      value: 4.48
      objectReference: {fileID: 0}
    - target: {fileID: 8634283793599274478, guid: edfb440971a34264eb80fcced722e571, type: 3}
      propertyPath: m_LocalPosition.y
      value: -0.1
      objectReference: {fileID: 0}
    - target: {fileID: 8634283793599274478, guid: edfb440971a34264eb80fcced722e571, type: 3}
      propertyPath: m_LocalPosition.z
      value: 18.46
      objectReference: {fileID: 0}
    - target: {fileID: 8634283793599274478, guid: edfb440971a34264eb80fcced722e571, type: 3}
      propertyPath: m_LocalRotation.w
      value: 0.7071068
      objectReference: {fileID: 0}
    - target: {fileID: 8634283793599274478, guid: edfb440971a34264eb80fcced722e571, type: 3}
      propertyPath: m_LocalRotation.x
      value: 0
      objectReference: {fileID: 0}
    - target: {fileID: 8634283793599274478, guid: edfb440971a34264eb80fcced722e571, type: 3}
      propertyPath: m_LocalRotation.y
      value: 0.7071068
      objectReference: {fileID: 0}
    - target: {fileID: 8634283793599274478, guid: edfb440971a34264eb80fcced722e571, type: 3}
      propertyPath: m_LocalRotation.z
      value: 0
      objectReference: {fileID: 0}
    - target: {fileID: 8634283793599274478, guid: edfb440971a34264eb80fcced722e571, type: 3}
      propertyPath: m_LocalEulerAnglesHint.x
      value: 0
      objectReference: {fileID: 0}
    - target: {fileID: 8634283793599274478, guid: edfb440971a34264eb80fcced722e571, type: 3}
      propertyPath: m_LocalEulerAnglesHint.y
      value: 90
      objectReference: {fileID: 0}
    - target: {fileID: 8634283793599274478, guid: edfb440971a34264eb80fcced722e571, type: 3}
      propertyPath: m_LocalEulerAnglesHint.z
      value: 0
      objectReference: {fileID: 0}
    m_RemovedComponents: []
  m_SourcePrefab: {fileID: 100100000, guid: edfb440971a34264eb80fcced722e571, type: 3}
