%YAML 1.1
%TAG !u! tag:unity3d.com,2011:
--- !u!114 &11400000
MonoBehaviour:
  m_ObjectHideFlags: 0
  m_CorrespondingSourceObject: {fileID: 0}
  m_PrefabInstance: {fileID: 0}
  m_PrefabAsset: {fileID: 0}
  m_GameObject: {fileID: 0}
  m_Enabled: 1
  m_EditorHideFlags: 0
  m_Script: {fileID: 11500000, guid: 37f10a238590e074abba731b41f1b72d, type: 3}
  m_Name: 109D922E-D3EF-452C-8ACC-6148B99C9C56
  m_EditorClassIdentifier: 
  objectName: Main
  id: 3161908922
  guid: 109D922E-D3EF-452C-8ACC-6148B99C9C56
