%YAML 1.1
%TAG !u! tag:unity3d.com,2011:
--- !u!114 &-7966365200417261813
MonoBehaviour:
  m_ObjectHideFlags: 3
  m_CorrespondingSourceObject: {fileID: 0}
  m_PrefabInstance: {fileID: 0}
  m_PrefabAsset: {fileID: 0}
  m_GameObject: {fileID: 0}
  m_Enabled: 1
  m_EditorHideFlags: 0
  m_Script: {fileID: 11500000, guid: 0b2db86121404754db890f4c8dfe81b2, type: 3}
  m_Name: Bloom
  m_EditorClassIdentifier: 
  active: 1
  m_AdvancedMode: 0
  threshold:
    m_OverrideState: 1
    m_Value: 1
    min: 0
  intensity:
    m_OverrideState: 1
    m_Value: 30
    min: 0
  scatter:
    m_OverrideState: 1
    m_Value: 0.434
    min: 0
    max: 1
  clamp:
    m_OverrideState: 1
    m_Value: 0.7
    min: 0
  tint:
    m_OverrideState: 0
    m_Value: {r: 1, g: 1, b: 1, a: 1}
    hdr: 0
    showAlpha: 0
    showEyeDropper: 1
  highQualityFiltering:
    m_OverrideState: 0
    m_Value: 0
  skipIterations:
    m_OverrideState: 0
    m_Value: 0
    min: 0
    max: 16
  dirtTexture:
    m_OverrideState: 0
    m_Value: {fileID: 0}
  dirtIntensity:
    m_OverrideState: 0
    m_Value: 0
    min: 0
--- !u!114 &-7506323247795339383
MonoBehaviour:
  m_ObjectHideFlags: 3
  m_CorrespondingSourceObject: {fileID: 0}
  m_PrefabInstance: {fileID: 0}
  m_PrefabAsset: {fileID: 0}
  m_GameObject: {fileID: 0}
  m_Enabled: 1
  m_EditorHideFlags: 0
  m_Script: {fileID: 11500000, guid: 97c23e3b12dc18c42a140437e53d3951, type: 3}
  m_Name: Tonemapping
  m_EditorClassIdentifier: 
  active: 1
  m_AdvancedMode: 0
  mode:
    m_OverrideState: 1
    m_Value: 2
--- !u!114 &-6580715502928922540
MonoBehaviour:
  m_ObjectHideFlags: 3
  m_CorrespondingSourceObject: {fileID: 0}
  m_PrefabInstance: {fileID: 0}
  m_PrefabAsset: {fileID: 0}
  m_GameObject: {fileID: 0}
  m_Enabled: 1
  m_EditorHideFlags: 0
  m_Script: {fileID: 11500000, guid: fb60a22f311433c4c962b888d1393f88, type: 3}
  m_Name: PaniniProjection
  m_EditorClassIdentifier: 
  active: 0
  m_AdvancedMode: 0
  distance:
    m_OverrideState: 1
    m_Value: 0.125
    min: 0
    max: 1
  cropToFit:
    m_OverrideState: 1
    m_Value: 1
    min: 0
    max: 1
--- !u!114 &-4501856868300942097
MonoBehaviour:
  m_ObjectHideFlags: 3
  m_CorrespondingSourceObject: {fileID: 0}
  m_PrefabInstance: {fileID: 0}
  m_PrefabAsset: {fileID: 0}
  m_GameObject: {fileID: 0}
  m_Enabled: 1
  m_EditorHideFlags: 0
  m_Script: {fileID: 11500000, guid: 66f335fb1ffd8684294ad653bf1c7564, type: 3}
  m_Name: ColorAdjustments
  m_EditorClassIdentifier: 
  active: 1
  m_AdvancedMode: 0
  postExposure:
    m_OverrideState: 0
    m_Value: 0
  contrast:
    m_OverrideState: 0
    m_Value: 0
    min: -100
    max: 100
  colorFilter:
    m_OverrideState: 1
    m_Value: {r: 0.99103385, g: 0.99103385, b: 0.99103385, a: 1}
    hdr: 1
    showAlpha: 0
    showEyeDropper: 1
  hueShift:
    m_OverrideState: 0
    m_Value: 0
    min: -180
    max: 180
  saturation:
    m_OverrideState: 0
    m_Value: 0
    min: -100
    max: 100
--- !u!114 &-290946736683302335
MonoBehaviour:
  m_ObjectHideFlags: 3
  m_CorrespondingSourceObject: {fileID: 0}
  m_PrefabInstance: {fileID: 0}
  m_PrefabAsset: {fileID: 0}
  m_GameObject: {fileID: 0}
  m_Enabled: 1
  m_EditorHideFlags: 0
  m_Script: {fileID: 11500000, guid: 558a8e2b6826cf840aae193990ba9f2e, type: 3}
  m_Name: ShadowsMidtonesHighlights
  m_EditorClassIdentifier: 
  active: 1
  m_AdvancedMode: 0
  shadows:
    m_OverrideState: 1
    m_Value: {x: 0.800097, y: 0.84140176, z: 1, w: 0.06269592}
  midtones:
    m_OverrideState: 0
    m_Value: {x: 1, y: 1, z: 1, w: 0}
  highlights:
    m_OverrideState: 0
    m_Value: {x: 1, y: 1, z: 1, w: 0}
  shadowsStart:
    m_OverrideState: 0
    m_Value: 0
    min: 0
  shadowsEnd:
    m_OverrideState: 0
    m_Value: 0.3
    min: 0
  highlightsStart:
    m_OverrideState: 0
    m_Value: 0.55
    min: 0
  highlightsEnd:
    m_OverrideState: 0
    m_Value: 1
    min: 0
--- !u!114 &11400000
MonoBehaviour:
  m_ObjectHideFlags: 0
  m_CorrespondingSourceObject: {fileID: 0}
  m_PrefabInstance: {fileID: 0}
  m_PrefabAsset: {fileID: 0}
  m_GameObject: {fileID: 0}
  m_Enabled: 1
  m_EditorHideFlags: 0
  m_Script: {fileID: 11500000, guid: d7fd9488000d3734a9e00ee676215985, type: 3}
  m_Name: volume Profile assistant
  m_EditorClassIdentifier: 
  components:
  - {fileID: -7966365200417261813}
  - {fileID: 5576219821859118860}
  - {fileID: -290946736683302335}
  - {fileID: -7506323247795339383}
  - {fileID: -6580715502928922540}
  - {fileID: 4903511383092590904}
  - {fileID: -4501856868300942097}
  - {fileID: 4989913167258563014}
--- !u!114 &4903511383092590904
MonoBehaviour:
  m_ObjectHideFlags: 3
  m_CorrespondingSourceObject: {fileID: 0}
  m_PrefabInstance: {fileID: 0}
  m_PrefabAsset: {fileID: 0}
  m_GameObject: {fileID: 0}
  m_Enabled: 1
  m_EditorHideFlags: 0
  m_Script: {fileID: 11500000, guid: c5e1dc532bcb41949b58bc4f2abfbb7e, type: 3}
  m_Name: LensDistortion
  m_EditorClassIdentifier: 
  active: 0
  m_AdvancedMode: 0
  intensity:
    m_OverrideState: 1
    m_Value: 0.13
    min: -1
    max: 1
  xMultiplier:
    m_OverrideState: 1
    m_Value: 1
    min: 0
    max: 1
  yMultiplier:
    m_OverrideState: 0
    m_Value: 1
    min: 0
    max: 1
  center:
    m_OverrideState: 1
    m_Value: {x: 0.5, y: 0.5}
  scale:
    m_OverrideState: 1
    m_Value: 1.01
    min: 0.01
    max: 5
--- !u!114 &4989913167258563014
MonoBehaviour:
  m_ObjectHideFlags: 3
  m_CorrespondingSourceObject: {fileID: 0}
  m_PrefabInstance: {fileID: 0}
  m_PrefabAsset: {fileID: 0}
  m_GameObject: {fileID: 0}
  m_Enabled: 1
  m_EditorHideFlags: 0
  m_Script: {fileID: 11500000, guid: 899c54efeace73346a0a16faa3afe726, type: 3}
  m_Name: Vignette
  m_EditorClassIdentifier: 
  active: 1
  m_AdvancedMode: 0
  color:
    m_OverrideState: 1
    m_Value: {r: 0, g: 0, b: 0, a: 1}
    hdr: 0
    showAlpha: 0
    showEyeDropper: 1
  center:
    m_OverrideState: 1
    m_Value: {x: 0.5, y: 0.5}
  intensity:
    m_OverrideState: 1
    m_Value: 0.14
    min: 0
    max: 1
  smoothness:
    m_OverrideState: 1
    m_Value: 0.5
    min: 0.01
    max: 1
  rounded:
    m_OverrideState: 1
    m_Value: 0
--- !u!114 &5576219821859118860
MonoBehaviour:
  m_ObjectHideFlags: 3
  m_CorrespondingSourceObject: {fileID: 0}
  m_PrefabInstance: {fileID: 0}
  m_PrefabAsset: {fileID: 0}
  m_GameObject: {fileID: 0}
  m_Enabled: 1
  m_EditorHideFlags: 0
  m_Script: {fileID: 11500000, guid: c01700fd266d6914ababb731e09af2eb, type: 3}
  m_Name: DepthOfField
  m_EditorClassIdentifier: 
  active: 0
  m_AdvancedMode: 0
  mode:
    m_OverrideState: 1
    m_Value: 2
  gaussianStart:
    m_OverrideState: 1
    m_Value: 9.45
    min: 0
  gaussianEnd:
    m_OverrideState: 1
    m_Value: 6.6
    min: 0
  gaussianMaxRadius:
    m_OverrideState: 0
    m_Value: 1
    min: 0.5
    max: 1.5
  highQualitySampling:
    m_OverrideState: 0
    m_Value: 0
  focusDistance:
    m_OverrideState: 1
    m_Value: 5
    min: 0.1
  aperture:
    m_OverrideState: 1
    m_Value: 6
    min: 1
    max: 32
  focalLength:
    m_OverrideState: 1
    m_Value: 110
    min: 1
    max: 300
  bladeCount:
    m_OverrideState: 1
    m_Value: 5
    min: 3
    max: 9
  bladeCurvature:
    m_OverrideState: 1
    m_Value: 1
    min: 0
    max: 1
  bladeRotation:
    m_OverrideState: 1
    m_Value: 0
    min: -180
    max: 180
