%YAML 1.1
%TAG !u! tag:unity3d.com,2011:
--- !u!114 &3114730688715923330
MonoBehaviour:
  m_ObjectHideFlags: 0
  m_CorrespondingSourceObject: {fileID: 0}
  m_PrefabInstance: {fileID: 0}
  m_PrefabAsset: {fileID: 0}
  m_GameObject: {fileID: 3173993982226097777}
  m_Enabled: 1
  m_EditorHideFlags: 0
  m_Script: {fileID: 11500000, guid: 3993f9e60195259469296b87c9231559, type: 3}
  m_Name: 
  m_EditorClassIdentifier: 
--- !u!1 &6885832046363063544
GameObject:
  m_ObjectHideFlags: 0
  m_CorrespondingSourceObject: {fileID: 0}
  m_PrefabInstance: {fileID: 0}
  m_PrefabAsset: {fileID: 0}
  serializedVersion: 6
  m_Component:
  - component: {fileID: 1383524960798524568}
  m_Layer: 10
  m_Name: Wall_01
  m_TagString: Untagged
  m_Icon: {fileID: 0}
  m_NavMeshLayer: 0
  m_StaticEditorFlags: 0
  m_IsActive: 1
--- !u!4 &1383524960798524568
Transform:
  m_ObjectHideFlags: 0
  m_CorrespondingSourceObject: {fileID: 0}
  m_PrefabInstance: {fileID: 0}
  m_PrefabAsset: {fileID: 0}
  m_GameObject: {fileID: 6885832046363063544}
  m_LocalRotation: {x: 0, y: 0, z: 0, w: 1}
  m_LocalPosition: {x: 0, y: 0, z: 0}
  m_LocalScale: {x: 1, y: 1, z: 1}
  m_Children:
  - {fileID: 3177489355881580965}
  m_Father: {fileID: 0}
  m_RootOrder: 0
  m_LocalEulerAnglesHint: {x: 0, y: 0, z: 0}
--- !u!1001 &3173265860505571513
PrefabInstance:
  m_ObjectHideFlags: 0
  serializedVersion: 2
  m_Modification:
    m_TransformParent: {fileID: 1383524960798524568}
    m_Modifications:
    - target: {fileID: 1687514605647560, guid: 4b6be9f061454da438147cad1d8be214, type: 3}
      propertyPath: m_Name
      value: SM_Bld_Wall_02
      objectReference: {fileID: 0}
    - target: {fileID: 1687514605647560, guid: 4b6be9f061454da438147cad1d8be214, type: 3}
      propertyPath: m_Layer
      value: 10
      objectReference: {fileID: 0}
    - target: {fileID: 4787029479463196, guid: 4b6be9f061454da438147cad1d8be214, type: 3}
      propertyPath: m_RootOrder
      value: 0
      objectReference: {fileID: 0}
    - target: {fileID: 4787029479463196, guid: 4b6be9f061454da438147cad1d8be214, type: 3}
      propertyPath: m_LocalPosition.x
      value: 2.5
      objectReference: {fileID: 0}
    - target: {fileID: 4787029479463196, guid: 4b6be9f061454da438147cad1d8be214, type: 3}
      propertyPath: m_LocalPosition.y
      value: 0
      objectReference: {fileID: 0}
    - target: {fileID: 4787029479463196, guid: 4b6be9f061454da438147cad1d8be214, type: 3}
      propertyPath: m_LocalPosition.z
      value: -2.5
      objectReference: {fileID: 0}
    - target: {fileID: 4787029479463196, guid: 4b6be9f061454da438147cad1d8be214, type: 3}
      propertyPath: m_LocalRotation.w
      value: 1
      objectReference: {fileID: 0}
    - target: {fileID: 4787029479463196, guid: 4b6be9f061454da438147cad1d8be214, type: 3}
      propertyPath: m_LocalRotation.x
      value: -0
      objectReference: {fileID: 0}
    - target: {fileID: 4787029479463196, guid: 4b6be9f061454da438147cad1d8be214, type: 3}
      propertyPath: m_LocalRotation.y
      value: -0
      objectReference: {fileID: 0}
    - target: {fileID: 4787029479463196, guid: 4b6be9f061454da438147cad1d8be214, type: 3}
      propertyPath: m_LocalRotation.z
      value: -0
      objectReference: {fileID: 0}
    - target: {fileID: 4787029479463196, guid: 4b6be9f061454da438147cad1d8be214, type: 3}
      propertyPath: m_LocalEulerAnglesHint.x
      value: 0
      objectReference: {fileID: 0}
    - target: {fileID: 4787029479463196, guid: 4b6be9f061454da438147cad1d8be214, type: 3}
      propertyPath: m_LocalEulerAnglesHint.y
      value: 0
      objectReference: {fileID: 0}
    - target: {fileID: 4787029479463196, guid: 4b6be9f061454da438147cad1d8be214, type: 3}
      propertyPath: m_LocalEulerAnglesHint.z
      value: 0
      objectReference: {fileID: 0}
    - target: {fileID: 3867713164207631383, guid: 4b6be9f061454da438147cad1d8be214, type: 3}
      propertyPath: m_Layer
      value: 0
      objectReference: {fileID: 0}
    m_RemovedComponents:
    - {fileID: 4600473167664637402, guid: 4b6be9f061454da438147cad1d8be214, type: 3}
    - {fileID: 2232093657004632766, guid: 4b6be9f061454da438147cad1d8be214, type: 3}
    - {fileID: 2720332276836720029, guid: 4b6be9f061454da438147cad1d8be214, type: 3}
  m_SourcePrefab: {fileID: 100100000, guid: 4b6be9f061454da438147cad1d8be214, type: 3}
--- !u!1 &3173993982226097777 stripped
GameObject:
  m_CorrespondingSourceObject: {fileID: 1687514605647560, guid: 4b6be9f061454da438147cad1d8be214, type: 3}
  m_PrefabInstance: {fileID: 3173265860505571513}
  m_PrefabAsset: {fileID: 0}
--- !u!4 &3177489355881580965 stripped
Transform:
  m_CorrespondingSourceObject: {fileID: 4787029479463196, guid: 4b6be9f061454da438147cad1d8be214, type: 3}
  m_PrefabInstance: {fileID: 3173265860505571513}
  m_PrefabAsset: {fileID: 0}
