%YAML 1.1
%TAG !u! tag:unity3d.com,2011:
--- !u!114 &11400000
MonoBehaviour:
  m_ObjectHideFlags: 0
  m_CorrespondingSourceObject: {fileID: 0}
  m_PrefabInstance: {fileID: 0}
  m_PrefabAsset: {fileID: 0}
  m_GameObject: {fileID: 0}
  m_Enabled: 1
  m_EditorHideFlags: 0
  m_Script: {fileID: 11500000, guid: 048a88662c8a4d846b960a0e3f5d83e8, type: 3}
  m_Name: DEA701C9-1E10-458B-8B7F-FFAA8F7D214F
  m_EditorClassIdentifier: 
  objectName: Notification
  id: 3900109056
  guid: DEA701C9-1E10-458B-8B7F-FFAA8F7D214F
