%YAML 1.1
%TAG !u! tag:unity3d.com,2011:
--- !u!114 &11400000
MonoBehaviour:
  m_ObjectHideFlags: 0
  m_CorrespondingSourceObject: {fileID: 0}
  m_PrefabInstance: {fileID: 0}
  m_PrefabAsset: {fileID: 0}
  m_GameObject: {fileID: 0}
  m_Enabled: 1
  m_EditorHideFlags: 0
  m_Script: {fileID: 11500000, guid: 048a88662c8a4d846b960a0e3f5d83e8, type: 3}
  m_Name: EF39A52B-00C4-4E14-9501-A9F79ACE0BE4
  m_EditorClassIdentifier: 
  objectName: Detection
  id: 882108042
  guid: EF39A52B-00C4-4E14-9501-A9F79ACE0BE4
