%YAML 1.1
%TAG !u! tag:unity3d.com,2011:
--- !u!114 &11400000
MonoBehaviour:
  m_ObjectHideFlags: 0
  m_CorrespondingSourceObject: {fileID: 0}
  m_PrefabInstance: {fileID: 0}
  m_PrefabAsset: {fileID: 0}
  m_GameObject: {fileID: 0}
  m_Enabled: 1
  m_EditorHideFlags: 0
  m_Script: {fileID: 11500000, guid: 512d494ea7eda7149b2b897962edfe91, type: 3}
  m_Name: __Tutoriel
  m_EditorClassIdentifier: 
  displayName: Practice Run
  description: Your first steps.
  image: {fileID: 21300000, guid: 781e2d352d0c4844b97013cf6221f694, type: 3}
  sceneField:
    m_SceneAsset: {fileID: 102900000, guid: 640a57bd3b26ee34b9d3e677bf6a8db6, type: 3}
    m_SceneName: Tutoriel
  AssitantCount: 1
  AgentCount: 3
  difficulty: 0
  levelRuleSet: {fileID: 11400000, guid: 37877bc934dd0994d9c4e75567e4f1b3, type: 2}
  IsDevLevel: 0
