%YAML 1.1
%TAG !u! tag:unity3d.com,2011:
--- !u!114 &11400000
MonoBehaviour:
  m_ObjectHideFlags: 0
  m_CorrespondingSourceObject: {fileID: 0}
  m_PrefabInstance: {fileID: 0}
  m_PrefabAsset: {fileID: 0}
  m_GameObject: {fileID: 0}
  m_Enabled: 1
  m_EditorHideFlags: 0
  m_Script: {fileID: 11500000, guid: 397efdd1a76300d458f401979d5c9ee4, type: 3}
  m_Name: ArrowRight
  m_EditorClassIdentifier: 
  sprite: {fileID: 21300000, guid: 9b09c6f746f69cd4c81c94dc696fb76c, type: 3}
  numberUtilisation: 5
  useful: 1
  weight: 2
  correspondingNumber: 2
