%YAML 1.1
%TAG !u! tag:unity3d.com,2011:
--- !u!114 &11400000
MonoBehaviour:
  m_ObjectHideFlags: 0
  m_CorrespondingSourceObject: {fileID: 0}
  m_PrefabInstance: {fileID: 0}
  m_PrefabAsset: {fileID: 0}
  m_GameObject: {fileID: 0}
  m_Enabled: 1
  m_EditorHideFlags: 0
  m_Script: {fileID: 11500000, guid: 397efdd1a76300d458f401979d5c9ee4, type: 3}
  m_Name: Bee
  m_EditorClassIdentifier: 
  sprite: {fileID: 21300000, guid: a30315da6be6cbd44b1e91a81b3bd630, type: 3}
  numberUtilisation: 2
  useful: 0
  weight: 1
  correspondingNumber: 4
