%YAML 1.1
%TAG !u! tag:unity3d.com,2011:
--- !u!114 &11400000
MonoBehaviour:
  m_ObjectHideFlags: 0
  m_CorrespondingSourceObject: {fileID: 0}
  m_PrefabInstance: {fileID: 0}
  m_PrefabAsset: {fileID: 0}
  m_GameObject: {fileID: 0}
  m_Enabled: 1
  m_EditorHideFlags: 0
  m_Script: {fileID: 11500000, guid: 7bc7740a99594c240a34b435bd85619c, type: 3}
  m_Name: 855C7E11-8FDC-4A71-8FBD-6BEBD7901EAB
  m_EditorClassIdentifier: 
  objectName: Gameplay
  id: 89505537
  guid: 855C7E11-8FDC-4A71-8FBD-6BEBD7901EAB
  WwiseStateGroupReference: {fileID: 11400000, guid: ad836bf7fd7158e41a6fb0e70ae1a89f, type: 2}
