%YAML 1.1
%TAG !u! tag:unity3d.com,2011:
--- !u!114 &11400000
MonoBehaviour:
  m_ObjectHideFlags: 0
  m_CorrespondingSourceObject: {fileID: 0}
  m_PrefabInstance: {fileID: 0}
  m_PrefabAsset: {fileID: 0}
  m_GameObject: {fileID: 0}
  m_Enabled: 1
  m_EditorHideFlags: 0
  m_Script: {fileID: 11500000, guid: 70b7cd5fc7d27084a9da52e386d336b6, type: 3}
  m_Name: 2B51342F-F945-4349-9E7B-C699EA6E6CBA
  m_EditorClassIdentifier: 
  objectName: MusicVolumeParameter
  id: 1738347081
  guid: 2B51342F-F945-4349-9E7B-C699EA6E6CBA
